// How to run: `pl -png -o graph.png graph.plt`
//
// Originally generated by the
// [scatterplot prefab](http://ploticus.sourceforge.net/doc/prefab_scat.html)
// but extensively tweaked since.
#proc settings
encodenames: yes
enable_suscripts: yes

#proc getdata
pathname: musther.data
delim: comma

#proc areadef
rectangle: 1 2 5.5 4
xautorange: datafield=1 nearest=auto
yautorange: datafields=2, combomode=hilo incmult=2.0 nearest=auto lowfix=0

// Highlight the paced laps ("three fast laps").
#proc rect
color: rgb(0.97,0.97,0.97)
rectangle: 15.5(s) 0(s) 18.5(s) max

// Add some minute markers at 10,15,20 minutes except we have
// to specify the times in seconds Because Reasons.
#set MINUTEMARKERS = "600,900,1200
#for MINUTES in @MINUTEMARKERS
    #proc line
    linedetails: width=0.3 color=rgb(0.8,0.8,0.8)
    points: min @MINUTES(s) max @MINUTES(s)
// NB. This `#endproc` is vital - otherwise the `points:` line breaks.
    #endproc
#endloop

// Plot the regression of the first 15 laps extended
// to the full race. There's a case to be made that
// maybe only 8-15 should be plotted because that'll
// be "more fatigued" but eh.
#proc curvefit
xfield: 1
yfield: 2
curvetype: regression
calcrange: 0 15
linerange: 7.5 27.5
linedetails: width=0.4 color=oceanblue style=1

// Regression for the fast laps, extended to the end.
#proc curvefit
xfield: 1
yfield: 2
curvetype: regression
calcrange: 16 18
linerange: 15.5 27.5
linedetails: width=0.4 color=rgb(1.0,0.5,1.0) style=1

// Regression of the last 9 "death" laps to see just
// how much fatigue has set in.
#proc curvefit
xfield: 1
yfield: 2
curvetype: regression
calcrange: 19
linerange: 18.5 27.5
linedetails: width=0.5 color=pink

// Regression for the fast laps, not extended.
#proc curvefit
xfield: 1
yfield: 2
curvetype: regression
calcrange: 16 18
linerange: 15.5 18.5
linedetails: width=0.7 color=rgb(1.0,0.5,1.0)

// Regression for the first 15 laps, not extended.
#proc curvefit
xfield: 1
yfield: 2
curvetype: regression
calcrange: 0 15
linerange: 0.5 15.5
linedetails: width=0.7 color=oceanblue

// Finally we get to plotting the segment times.
#proc scatterplot
xfield: 1
yfield: 2
symbol: shape=square style=outline fillcolor=white radius=0.03

// ALWAYS plot the axes last to make sure they overwrite any
// of the trend lines and rectangles, etc.

// Across the axis with some specified stubs because there's
// no actual way to get a nice spread with 1-27. Plus it's nice
// to highlight some of the milestones.
#proc xaxis
stubrange: 1 27
stubcull: yes
label: lap
labeldetails: size=4
labeldistance: -0.05
stubdetails: size=6
selflocatingstubs: list 1 1\n7 7\n8 8\n14 14\n15 15\n19 19\n27 27

// This will be some timings for the various lap counts when I can
// find a way of getting them.
// ```
// //#proc xaxis
// //stubrange: 1 27
// //stubcull: yes
// //stubdetails: size=4 adjust=0,0.3
// //selflocatingstubs: list 7 7\n8 8\n14 10:00\n15 15\n19 19\n27 24:53
// ```

// `stubmult: 0.01666667` is basically "seconds to minutes".
#proc yaxis
stubs: inc 300
stubcull: yes
stubrange: 0
label: minutes
labeldetails: size=4 
labeldistance: -0.07
stubmult: .016666667
stubdetails: size=6 adjust=0.06

// Finally add a nice title.
#proc annotate
textdetails: size=6 align=l
location: 1(s) 1350(s)
text: "Samphire Sea Wall" segment (1.7km)
